<?xml version="1.0" encoding="utf-8"?>
<!-- Generator: Adobe Illustrator 17.0.0, SVG Export Plug-In . SVG Version: 6.00 Build 0)  -->
<!DOCTYPE svg PUBLIC "-//W3C//DTD SVG 1.1//EN" "http://www.w3.org/Graphics/SVG/1.1/DTD/svg11.dtd">
<svg version="1.1" id="Layer_1" xmlns="http://www.w3.org/2000/svg" xmlns:xlink="http://www.w3.org/1999/xlink" x="0px" y="0px"
	 width="71.816px" height="25.581px" viewBox="0 0 71.816 25.581" enable-background="new 0 0 71.816 25.581" xml:space="preserve">
<g>
	<path fill="#FFFFFF" d="M0.001,25.584l71.816-0.003L71.816,0L0,0.003L0.001,25.584z M58.061,5.291c4.142,0,7.5,3.358,7.5,7.5
		s-3.358,7.5-7.5,7.5s-7.5-3.358-7.5-7.5C50.562,8.649,53.919,5.291,58.061,5.291z"/>
</g>
</svg>
